<?xml version="1.0" encoding="utf-8"?>
<!-- Generator: Adobe Illustrator 19.2.1, SVG Export Plug-In . SVG Version: 6.00 Build 0)  -->
<svg version="1.1" id="Vrstva_1" xmlns="http://www.w3.org/2000/svg" xmlns:xlink="http://www.w3.org/1999/xlink" x="0px" y="0px"
	 viewBox="0 0 24 24" style="enable-background:new 0 0 24 24;" xml:space="preserve">
<path d="M14,4l2.3,2.3l-2.9,2.9l1.4,1.4l2.9-2.9L20,10V4 M10,4H4v6l2.3-2.3l4.7,4.7V20h2v-8.4L7.7,6.3"/>
</svg>
