<?xml version="1.0" encoding="utf-8"?>
<!-- Generator: Adobe Illustrator 19.2.1, SVG Export Plug-In . SVG Version: 6.00 Build 0)  -->
<svg version="1.1" id="Vrstva_1" xmlns="http://www.w3.org/2000/svg" xmlns:xlink="http://www.w3.org/1999/xlink" x="0px" y="0px"
	 viewBox="0 0 25 25" style="enable-background:new 0 0 25 25;" xml:space="preserve">
<g>
	<path d="M16.5,15.5c-0.6,0-0.9,0.5-1,1.4l0,0.4c0,0.5,0.1,0.9,0.2,1.1c0.2,0.3,0.4,0.4,0.7,0.4c0.3,0,0.5-0.1,0.7-0.4
		c0.2-0.3,0.2-0.6,0.2-1.1v-0.2c0-0.5-0.1-0.9-0.2-1.1C17.1,15.7,16.8,15.5,16.5,15.5z"/>
	<path d="M14,2.5H6c-1.1,0-2,0.9-2,2v16c0,1.1,0.9,2,2,2h12c1.1,0,2-0.9,2-2v-12L14,2.5z M13,4l5.5,5.5H13V4z M9.4,19.6H5.5V19
		l2.4-3.4H5.5v-0.9h3.9v0.6L7,18.7h2.4V19.6z M13.7,15.6h-2.1v1.1h1.9v0.9h-1.9v2h-1.2v-5h3.3V15.6z M18.7,17.3
		c0,0.5-0.1,0.9-0.3,1.3c-0.2,0.4-0.4,0.7-0.8,0.9c-0.3,0.2-0.7,0.3-1.1,0.3s-0.8-0.1-1.1-0.3c-0.3-0.2-0.6-0.5-0.8-0.8
		s-0.3-0.8-0.3-1.2v-0.3c0-0.5,0.1-0.9,0.3-1.3c0.2-0.4,0.4-0.7,0.8-0.9c0.3-0.2,0.7-0.3,1.1-0.3c0.4,0,0.8,0.1,1.1,0.3
		c0.3,0.2,0.6,0.5,0.8,0.9s0.3,0.8,0.3,1.3V17.3z"/>
</g>
</svg>
