<?xml version="1.0" encoding="utf-8"?>
<!-- Generator: Adobe Illustrator 19.2.1, SVG Export Plug-In . SVG Version: 6.00 Build 0)  -->
<svg version="1.1" id="Vrstva_1" xmlns="http://www.w3.org/2000/svg" xmlns:xlink="http://www.w3.org/1999/xlink" x="0px" y="0px"
	 viewBox="0 0 25 25" style="enable-background:new 0 0 25 25;" xml:space="preserve">
<g>
	<g>
		<path d="M4.5,9.5c0.3-0.6,1.1-1.1,1.8-1.1h15.2V7.4c0-1.2-0.9-2.1-2.1-2.1H11L8.9,3.2H2.6c-1.2,0-2.1,0.9-2.1,2.1v12.6
			c0,0.2,0,0.4,0.1,0.6L4.5,9.5z"/>
	</g>
	<path d="M19.6,20.2c0.4,0,0.8-0.3,0.9-0.5l4.1-9.3H7c-0.4,0-0.8,0.3-0.9,0.5L2,20.2H19.6z"/>
</g>
</svg>
