<?xml version="1.0" encoding="utf-8"?>
<!-- Generator: Adobe Illustrator 19.2.1, SVG Export Plug-In . SVG Version: 6.00 Build 0)  -->
<svg version="1.1" id="Vrstva_1" xmlns="http://www.w3.org/2000/svg" xmlns:xlink="http://www.w3.org/1999/xlink" x="0px" y="0px"
	 viewBox="0 0 24 24" style="enable-background:new 0 0 24 24;" xml:space="preserve">
<path d="M19,19V5H5v14H19 M19,3c1.1,0,2,0.9,2,2v14c0,1.1-0.9,2-2,2H5c-1.1,0-2-0.9-2-2V5c0-1.1,0.9-2,2-2H19 M16.7,9.4l-1,1
	l-2.1-2.1l1-1c0.2-0.2,0.6-0.2,0.8,0l1.3,1.3C16.9,8.8,16.9,9.1,16.7,9.4 M7,14.9l6.1-6.1l2.1,2.1L9.1,17H7V14.9z"/>
</svg>
