<?xml version="1.0" encoding="utf-8"?>
<!-- Generator: Adobe Illustrator 20.0.0, SVG Export Plug-In . SVG Version: 6.00 Build 0)  -->
<svg version="1.1" id="Vrstva_1" xmlns="http://www.w3.org/2000/svg" xmlns:xlink="http://www.w3.org/1999/xlink" x="0px" y="0px"
	 viewBox="0 0 24 24" style="enable-background:new 0 0 24 24;" xml:space="preserve">
<path d="M3.3,6.8C2.6,6.8,2,7.4,2,8.1v7.7c0,0.7,0.6,1.3,1.3,1.3h10.3c0.7,0,1.3-0.6,1.3-1.3V8.1c0-0.7-0.6-1.3-1.3-1.3H3.3
	 M3.3,15.9V9.4l5.2,3.2l5.2-3.2v6.5H3.3 M3.3,8.1h10.3l0,0l-5.2,3.2L3.3,8.1L3.3,8.1z"/>
<path d="M16.8,9.4h4.5c0.4,0,0.6-0.3,0.6-0.6s-0.3-0.6-0.6-0.6h-4.5c-0.4,0-0.6,0.3-0.6,0.6S16.5,9.4,16.8,9.4z"/>
<path d="M16.8,15.9h0.6c0.4,0,0.6-0.3,0.6-0.6s-0.3-0.6-0.6-0.6h-0.6c-0.4,0-0.6,0.3-0.6,0.6S16.5,15.9,16.8,15.9z"/>
<path d="M16.8,12.6h2.6c0.4,0,0.6-0.3,0.6-0.6s-0.3-0.6-0.6-0.6h-2.6c-0.4,0-0.6,0.3-0.6,0.6S16.5,12.6,16.8,12.6z"/>
</svg>
